%YAML 1.1
%TAG !u! tag:unity3d.com,2011:
--- !u!78 &1
TagManager:
  serializedVersion: 2
  tags:
  - Fire
  layers:
  - Default
  - TransparentFX
  - Ignore Raycast
  - 
  - Water
  - UI
  - 
  - 
  - Ground
  - Ladder
  - Background
  - Player
  - Enemy
  - 
  - 
  - 
  - 
  - 
  - 
  - 
  - 
  - 
  - 
  - 
  - 
  - 
  - 
  - 
  - 
  - 
  - 
  - 
  m_SortingLayers:
  - name: Default
    uniqueID: 0
    locked: 0
  - name: Background
    uniqueID: 3431658711
    locked: 0
  - name: Ladder
    uniqueID: 2380286133
    locked: 0
  - name: Enemy
    uniqueID: 454557707
    locked: 0
  - name: Player
    uniqueID: 3882674067
    locked: 0
  - name: Foreground
    uniqueID: 2086522915
    locked: 0
